…
# Input data
str(airport_list_1, 1)
#> List of 4
#>  $ global_level:'data.frame':    1 obs. of  11 variables:
#>  $ flight_level:Classes 'tbl_df', 'tbl' and 'data.frame':    10 obs. of  7 variables:
#>  $ gate_level  :Classes 'tbl_df', 'tbl' and 'data.frame':    5 obs. of  4 variables:
#>  $ nat_level   :Classes 'tbl_df', 'tbl' and 'data.frame':    2 obs. of  3 variables:

# Run simulation
passenger_table <- do.call(AirportSimulate1, airport_list_1)

# Show output
passenger_table
#> # A tibble: 2,930 x 42
#>    flight   arrive  gate passengers scale_dpl shape_dpl p_nat        ID
#>    <chr>     <dbl> <dbl>      <dbl>     <dbl>     <dbl> <list>    <int>
#>  1 flight 1    25.    1.       150.      4.20      3.70 <dbl [2]>     1
#>  2 flight 1    25.    1.       150.      4.20      3.70 <dbl [2]>     2
#>  3 flight 1    25.    1.       150.      4.20      3.70 <dbl [2]>     3
#>  4 flight 1    25.    1.       150.      4.20      3.70 <dbl [2]>     4
#>  5 flight 1    25.    1.       150.      4.20      3.70 <dbl [2]>     5
#>  6 flight 1    25.    1.       150.      4.20      3.70 <dbl [2]>     6
#>  7 flight 1    25.    1.       150.      4.20      3.70 <dbl [2]>     7
#>  8 flight 1    25.    1.       150.      4.20      3.70 <dbl [2]>     8
#>  9 flight 1    25.    1.       150.      4.20      3.70 <dbl [2]>     9
#> 10 flight 1    25.    1.       150.      4.20      3.70 <dbl [2]>    10
#> # ... with 2,920 more rows, and 34 more variables: distance_gate <dbl>,
#> #   lag_bags <dbl>, handler <chr>, nat <chr>, rate_imm <dbl>,
#> #   server_imm <list>, walk_speed <dbl>, deplane <dbl>, arrive_ac <dbl>,
#> #   walk_ac <dbl>, arrive_imm <dbl>, service_imm <dbl>, depart_imm <dbl>,
#> #   walk_imm <dbl>, n_bags <int>, arrive_bh <dbl>, walk_bh <dbl>,
#> #   last_bag <dbl>, depart_bh <dbl>, arrive_cus <dbl>, service_cus <dbl>,
#> #   `n_bags == 0` <lgl>, depart_cus <dbl>, system_dpl <dbl>,
#> #   system_ac <dbl>, system_imm <dbl>, system_bh <dbl>, system_cus <dbl>,
#> #   system_bags <dbl>, system_total <dbl>, wait_imm <dbl>, wait_bh <dbl>,
…
